%YAML 1.1
%TAG !u! tag:unity3d.com,2011:
--- !u!1045 &1
EditorBuildSettings:
  m_ObjectHideFlags: 0
  serializedVersion: 2
  m_Scenes:
  - enabled: 1
    path: Assets/Scenes/MainScene.unity
    guid: 9fc0d4010bbf28b4594072e72b8655ab
  m_configObjects:
    com.unity.xr.management.loader_settings: {fileID: 11400000, guid: 5dd7f17bbaaf0d044ad407ea604d99dd, type: 2}
    com.unity.xr.openxr.settings4: {fileID: 11400000, guid: fa6ba90d83ace00429da2428bc64533b, type: 2}
